{
	"info": {
		"_postman_id": "0113b6e4-cfe4-463b-83ff-dd1c0aab99da",
		"name": "BehudaBlog",
		"schema": "https://schema.getpostman.com/json/collection/v2.1.0/collection.json"
	},
	"item": [
		{
			"name": "Tags",
			"request": {
				"method": "POST",
				"header": [],
				"body": {
					"mode": "graphql",
					"graphql": {
						"query": "query{\n    tags{\n    id\n    name\n  }\n}",
						"variables": ""
					}
				},
				"url": {
					"raw": "{{url}}",
					"host": [
						"{{url}}"
					]
				}
			},
			"response": []
		},
		{
			"name": "Categories",
			"request": {
				"method": "POST",
				"header": [],
				"body": {
					"mode": "graphql",
					"graphql": {
						"query": "query{\n  categories {\n    id\n    name\n    articleCount\n  }\n}",
						"variables": ""
					}
				},
				"url": {
					"raw": "{{url}}",
					"host": [
						"{{url}}"
					]
				}
			},
			"response": []
		},
		{
			"name": "Articles",
			"request": {
				"method": "POST",
				"header": [],
				"body": {
					"mode": "graphql",
					"graphql": {
						"query": "query{\r\n  articles{\r\n    id\r\n    title\r\n    text\r\n  }\r\n}",
						"variables": ""
					}
				},
				"url": {
					"raw": "{{url}}",
					"host": [
						"{{url}}"
					]
				}
			},
			"response": []
		},
		{
			"name": "Article",
			"request": {
				"method": "POST",
				"header": [],
				"body": {
					"mode": "graphql",
					"graphql": {
						"query": "query{\r\n  article(articleId: 6){\r\n    title\r\n    writer{\r\n      userId\r\n      name\r\n    }\r\n    category{\r\n      id\r\n      name\r\n    }\r\n    publishedAt\r\n    text\r\n    tags{\r\n      tag{\r\n        id\r\n        name\r\n      }\r\n    }\r\n    comments{\r\n        commentator{\r\n          userId\r\n          name\r\n        }\r\n      text\r\n      postedAt\r\n    }\r\n  }\r\n}",
						"variables": ""
					}
				},
				"url": {
					"raw": "{{url}}",
					"host": [
						"{{url}}"
					]
				}
			},
			"response": []
		},
		{
			"name": "Signup",
			"request": {
				"method": "POST",
				"header": [],
				"body": {
					"mode": "graphql",
					"graphql": {
						"query": "mutation{\r\n  signup(input:{\r\n    name: \"User 4\"\r\n    email: \"d@a.a\"\r\n    password: \"1234\"\r\n    confirmPassword: \"12345\"\r\n  }){\r\n    username\r\n    accessToken\r\n    expiresIn\r\n    tokenType\r\n  }\r\n}",
						"variables": ""
					}
				},
				"url": {
					"raw": "{{url}}",
					"host": [
						"{{url}}"
					]
				}
			},
			"response": []
		},
		{
			"name": "Login",
			"request": {
				"method": "POST",
				"header": [],
				"body": {
					"mode": "graphql",
					"graphql": {
						"query": "mutation {\r\n  login(input: { \r\n      email: \"a@a.a\"\r\n      password: \"123456\" }) {\r\n    username\r\n    accessToken\r\n    tokenType\r\n    expiresIn\r\n  }\r\n}",
						"variables": ""
					}
				},
				"url": {
					"raw": "{{url}}",
					"host": [
						"{{url}}"
					]
				}
			},
			"response": []
		},
		{
			"name": "WriteArticle",
			"request": {
				"auth": {
					"type": "bearer",
					"bearer": [
						{
							"key": "token",
							"value": "{{token}}",
							"type": "string"
						}
					]
				},
				"method": "POST",
				"header": [],
				"body": {
					"mode": "graphql",
					"graphql": {
						"query": "mutation {\r\n  writeArticle(input:{\r\n    title: \"Article 3\"\r\n    text: \"Hello world...\"\r\n    categoryId: 1\r\n    tagIds: [1,2,3]\r\n  }){\r\n    id\r\n    title\r\n    publishedAt\r\n  }\r\n}",
						"variables": ""
					}
				},
				"url": {
					"raw": "{{url}}",
					"host": [
						"{{url}}"
					]
				}
			},
			"response": []
		},
		{
			"name": "PostComment",
			"request": {
				"auth": {
					"type": "bearer",
					"bearer": [
						{
							"key": "token",
							"value": "{{token}}",
							"type": "string"
						}
					]
				},
				"method": "POST",
				"header": [],
				"body": {
					"mode": "graphql",
					"graphql": {
						"query": "mutation {\r\n  postComment(input: { \r\n      articleId: 6\r\n      commentText: \"Test Comment...\" }) {\r\n    id\r\n    text\r\n    postedAt\r\n  }\r\n}",
						"variables": ""
					}
				},
				"url": {
					"raw": "{{url}}",
					"host": [
						"{{url}}"
					]
				}
			},
			"response": []
		}
	],
	"protocolProfileBehavior": {}
}